src/FIFOS/SYNC_FIFO/sfifo_cover/engine_0/trace0.vcd
$version Generated by Yosys-SMTBMC $end
$timescale 1ns $end
$var integer 32 t smt_step $end
$var event 1 ! smt_clock $end
$scope module sync_fifo $end
$var wire 1 n0 i_CLK $end
$var wire 8 n1 i_INPUT $end
$var wire 1 n2 i_READ_REQUEST $end
$var wire 1 n3 i_RESET $end
$var wire 1 n4 i_WRITE_REQUEST $end
$var wire 1 n5 o_FIFO_ALMOST_EMPTY $end
$var wire 1 n6 o_FIFO_ALMOST_FULL $end
$var wire 1 n7 o_FIFO_EMPTY $end
$var wire 1 n8 o_FIFO_FULL $end
$var wire 8 n9 o_OUTPUT $end
$var wire 8 n15 r_MEMORY<0> $end
$var wire 8 n17 r_MEMORY<1> $end
$var wire 8 n14 r_MEMORY<2> $end
$var wire 8 n16 r_MEMORY<3> $end
$var wire 1 n10 r_PAST_VALID $end
$var wire 2 n11 r_QUANTITY $end
$var wire 2 n12 r_READ_POINTER $end
$var wire 2 n13 r_WRITE_POINTER $end
$upscope $end
$enddefinitions $end
#0
1!
b00000000000000000000000000000000 t
b0 n0
b00000000 n1
b0 n2
b0 n3
b0 n4
b1 n5
b0 n6
b0 n7
b0 n8
b00000000 n9
b0 n10
b00 n11
b00 n12
b00 n13
b00000000 n14
b00000000 n15
b00000000 n16
b00000001 n17
#5
#10
1!
b00000000000000000000000000000001 t
b1 n0
b00000001 n1
b0 n2
b0 n3
b1 n4
b1 n5
b0 n6
b1 n7
b0 n8
b00000000 n9
b1 n10
b00 n11
b00 n12
b00 n13
b00000000 n14
b00000000 n15
b00000000 n16
b00000001 n17
#15
#20
1!
b00000000000000000000000000000010 t
b0 n0
b00000001 n1
b0 n2
b0 n3
b1 n4
b1 n5
b0 n6
b1 n7
b0 n8
b00000000 n9
b1 n10
b01 n11
b00 n12
b01 n13
b00000000 n14
b00000001 n15
b00000000 n16
b00000001 n17
#25
#30
1!
b00000000000000000000000000000011 t
b1 n0
b00000000 n1
b0 n2
b0 n3
b1 n4
b1 n5
b0 n6
b0 n7
b0 n8
b00000000 n9
b1 n10
b10 n11
b00 n12
b10 n13
b00000000 n14
b00000001 n15
b00000000 n16
b00000001 n17
#35
#40
1!
b00000000000000000000000000000100 t
b0 n0
b00000000 n1
b0 n2
b0 n3
b1 n4
b0 n5
b0 n6
b0 n7
b0 n8
b00000000 n9
b1 n10
b11 n11
b00 n12
b11 n13
b00000000 n14
b00000001 n15
b00000000 n16
b00000001 n17
#45
#50
1!
b00000000000000000000000000000101 t
b1 n0
b10000001 n1
b0 n2
b0 n3
b0 n4
b0 n5
b1 n6
b0 n7
b1 n8
b00000000 n9
b1 n10
b00 n11
b00 n12
b00 n13
b00000000 n14
b00000001 n15
b00000000 n16
b00000001 n17
#55
#60
1!
b00000000000000000000000000000110 t
b0 n0
b10000001 n1
b0 n2
b0 n3
b0 n4
b1 n5
b0 n6
b1 n7
b0 n8
b00000000 n9
b1 n10
b00 n11
b00 n12
b00 n13
b00000000 n14
b00000001 n15
b00000000 n16
b00000001 n17
#65
#70
1!
b00000000000000000000000000000111 t
