src/FIFOS/SYNC_FIFO/sfifo_cover/engine_0/trace0.vcd
$version Generated by Yosys-SMTBMC $end
$timescale 1ns $end
$var integer 32 t smt_step $end
$var event 1 ! smt_clock $end
$scope module sync_fifo $end
$var wire 1 n0 i_CLK $end
$var wire 8 n1 i_INPUT $end
$var wire 1 n2 i_READ_REQUEST $end
$var wire 1 n3 i_WRITE_REQUEST $end
$var wire 1 n4 o_FIFO_EMPTY $end
$var wire 1 n5 o_FIFO_FULL $end
$var wire 8 n6 o_OUTPUT $end
$var wire 8 n12 r_MEMORY<0> $end
$var wire 8 n14 r_MEMORY<1> $end
$var wire 8 n11 r_MEMORY<2> $end
$var wire 8 n13 r_MEMORY<3> $end
$var wire 1 n7 r_PAST_VALID $end
$var wire 2 n8 r_QUANTITY $end
$var wire 2 n9 r_READ_POINTER $end
$var wire 2 n10 r_WRITE_POINTER $end
$upscope $end
$enddefinitions $end
#0
1!
b00000000000000000000000000000000 t
b0 n0
b00000000 n1
b0 n2
b0 n3
b1 n4
b1 n5
b00000000 n6
b0 n7
b00 n8
b00 n9
b00 n10
b00000001 n11
b00000001 n12
b00000001 n13
b00000000 n14
#5
#10
1!
b00000000000000000000000000000001 t
b1 n0
b00000000 n1
b0 n2
b1 n3
b1 n4
b0 n5
b00000000 n6
b1 n7
b00 n8
b00 n9
b00 n10
b00000001 n11
b00000001 n12
b00000001 n13
b00000000 n14
#15
#20
1!
b00000000000000000000000000000010 t
b0 n0
b00000000 n1
b0 n2
b1 n3
b1 n4
b0 n5
b00000000 n6
b1 n7
b01 n8
b00 n9
b01 n10
b00000001 n11
b00000000 n12
b00000001 n13
b00000000 n14
#25
#30
1!
b00000000000000000000000000000011 t
b1 n0
b00000001 n1
b1 n2
b1 n3
b0 n4
b0 n5
b00000000 n6
b1 n7
b10 n8
b00 n9
b10 n10
b00000001 n11
b00000000 n12
b00000001 n13
b00000000 n14
#35
#40
1!
b00000000000000000000000000000100 t
b0 n0
b00000001 n1
b1 n2
b1 n3
b0 n4
b0 n5
b00000000 n6
b1 n7
b11 n8
b00 n9
b11 n10
b00000001 n11
b00000000 n12
b00000001 n13
b00000000 n14
#45
#50
1!
b00000000000000000000000000000101 t
b1 n0
b00000000 n1
b0 n2
b0 n3
b0 n4
b1 n5
b00000000 n6
b1 n7
b00 n8
b00 n9
b00 n10
b00000001 n11
b00000000 n12
b00000001 n13
b00000000 n14
#55
#60
1!
b00000000000000000000000000000110 t
b0 n0
b00000000 n1
b0 n2
b0 n3
b1 n4
b0 n5
b00000000 n6
b1 n7
b00 n8
b00 n9
b00 n10
b00000001 n11
b00000000 n12
b00000001 n13
b00000000 n14
#65
#70
1!
b00000000000000000000000000000111 t
